#######################
#.................S...#
#.#####################
#.#...................#
#.#.#################.#
#.#.#......##5432123#.#
#.#...#...987654#E#4#.#
#.###################.#
#.....................#
#######################